module gitlab.com/singh-library/singh-core

go 1.18

require (
	github.com/DATA-DOG/go-sqlmock v1.5.0
	github.com/bxcodec/faker/v3 v3.8.0
	github.com/disintegration/imaging v1.6.2
	github.com/elastic/go-elasticsearch/v7 v7.17.1
	github.com/getsentry/sentry-go v0.13.0
	github.com/go-errors/errors v1.4.2
	github.com/go-redis/redis/v8 v8.11.5
	github.com/gojek/heimdall/v7 v7.0.2
	github.com/jinzhu/copier v0.3.5
	github.com/labstack/echo/v4 v4.7.2
	github.com/minio/minio-go/v7 v7.0.31
	github.com/mssola/user_agent v0.5.3
	github.com/satori/go.uuid v1.2.0
	github.com/sirupsen/logrus v1.8.1
	github.com/spf13/viper v1.12.0
	github.com/streadway/amqp v1.0.0
	github.com/stretchr/testify v1.8.0
	github.com/teris-io/shortid v0.0.0-20220617161101-71ec9f2aa569
	github.com/thedevsaddam/gojsonq/v2 v2.5.2
	github.com/tidwall/gjson v1.14.1
	go.mongodb.org/mongo-driver v1.11.0
	golang.org/x/crypto v0.0.0-20220622213112-05595931fe9d
	gopkg.in/asaskevich/govalidator.v9 v9.0.0-20180315120708-ccb8e960c48f
	gorm.io/driver/mysql v1.3.5
	gorm.io/driver/postgres v1.3.8
	gorm.io/driver/sqlserver v1.3.2
	gorm.io/gorm v1.23.8
)

require (
	github.com/cactus/go-statsd-client v3.0.1+incompatible // indirect
	github.com/cespare/xxhash/v2 v2.1.2 // indirect
	github.com/davecgh/go-spew v1.1.1 // indirect
	github.com/denisenkom/go-mssqldb v0.12.2 // indirect
	github.com/dgrijalva/jwt-go v3.2.0+incompatible // indirect
	github.com/dgryski/go-rendezvous v0.0.0-20200823014737-9f7001d12a5f // indirect
	github.com/dustin/go-humanize v1.0.0 // indirect
	github.com/fasthttp-contrib/websocket v0.0.0-20160511215533-1f3b11f56072 // indirect
	github.com/fsnotify/fsnotify v1.5.4 // indirect
	github.com/go-sql-driver/mysql v1.6.0 // indirect
	github.com/go-stack/stack v1.8.1 // indirect
	github.com/gobuffalo/genny v0.1.1 // indirect
	github.com/gobuffalo/gogen v0.1.1 // indirect
	github.com/gojek/valkyrie v0.0.0-20190210220504-8f62c1e7ba45 // indirect
	github.com/golang-jwt/jwt v3.2.2+incompatible // indirect
	github.com/golang-sql/civil v0.0.0-20220223132316-b832511892a9 // indirect
	github.com/golang-sql/sqlexp v0.1.0 // indirect
	github.com/golang/snappy v0.0.4 // indirect
	github.com/google/uuid v1.3.0 // indirect
	github.com/hashicorp/hcl v1.0.0 // indirect
	github.com/jackc/chunkreader/v2 v2.0.1 // indirect
	github.com/jackc/pgconn v1.12.1 // indirect
	github.com/jackc/pgio v1.0.0 // indirect
	github.com/jackc/pgpassfile v1.0.0 // indirect
	github.com/jackc/pgproto3/v2 v2.3.0 // indirect
	github.com/jackc/pgservicefile v0.0.0-20200714003250-2b9c44734f2b // indirect
	github.com/jackc/pgtype v1.11.0 // indirect
	github.com/jackc/pgx/v4 v4.16.1 // indirect
	github.com/jinzhu/inflection v1.0.0 // indirect
	github.com/jinzhu/now v1.1.5 // indirect
	github.com/json-iterator/go v1.1.12 // indirect
	github.com/k0kubun/colorstring v0.0.0-20150214042306-9440f1994b88 // indirect
	github.com/karrick/godirwalk v1.10.3 // indirect
	github.com/klauspost/compress v1.15.8 // indirect
	github.com/klauspost/cpuid/v2 v2.1.0 // indirect
	github.com/labstack/gommon v0.3.1 // indirect
	github.com/magiconair/properties v1.8.6 // indirect
	github.com/mattn/go-colorable v0.1.12 // indirect
	github.com/mattn/go-isatty v0.0.14 // indirect
	github.com/minio/md5-simd v1.1.2 // indirect
	github.com/minio/sha256-simd v1.0.0 // indirect
	github.com/mitchellh/mapstructure v1.5.0 // indirect
	github.com/modern-go/concurrent v0.0.0-20180306012644-bacd9c7ef1dd // indirect
	github.com/modern-go/reflect2 v1.0.2 // indirect
	github.com/montanaflynn/stats v0.6.6 // indirect
	github.com/pelletier/go-toml v1.9.5 // indirect
	github.com/pelletier/go-toml/v2 v2.0.2 // indirect
	github.com/pkg/errors v0.9.1 // indirect
	github.com/pmezard/go-difflib v1.0.0 // indirect
	github.com/rs/xid v1.4.0 // indirect
	github.com/spf13/afero v1.9.0 // indirect
	github.com/spf13/cast v1.5.0 // indirect
	github.com/spf13/jwalterweatherman v1.1.0 // indirect
	github.com/spf13/pflag v1.0.5 // indirect
	github.com/stretchr/objx v0.4.0 // indirect
	github.com/subosito/gotenv v1.4.0 // indirect
	github.com/tidwall/match v1.1.1 // indirect
	github.com/tidwall/pretty v1.2.0 // indirect
	github.com/valyala/bytebufferpool v1.0.0 // indirect
	github.com/valyala/fasttemplate v1.2.1 // indirect
	github.com/xdg-go/pbkdf2 v1.0.0 // indirect
	github.com/xdg-go/scram v1.1.1 // indirect
	github.com/xdg-go/stringprep v1.0.3 // indirect
	github.com/youmark/pkcs8 v0.0.0-20201027041543-1326539a0a0a // indirect
	github.com/yudai/pp v2.0.1+incompatible // indirect
	go.opentelemetry.io/otel/metric v0.31.0 // indirect
	golang.org/x/image v0.0.0-20220617043117-41969df76e82 // indirect
	golang.org/x/net v0.0.0-20220708220712-1185a9018129 // indirect
	golang.org/x/sync v0.0.0-20220601150217-0de741cfad7f // indirect
	golang.org/x/sys v0.0.0-20220712014510-0a85c31ab51e // indirect
	golang.org/x/text v0.3.7 // indirect
	golang.org/x/time v0.0.0-20220609170525-579cf78fd858 // indirect
	gopkg.in/go-playground/assert.v1 v1.2.1 // indirect
	gopkg.in/go-playground/validator.v8 v8.18.2 // indirect
	gopkg.in/ini.v1 v1.66.6 // indirect
	gopkg.in/yaml.v2 v2.4.0 // indirect
	gopkg.in/yaml.v3 v3.0.1 // indirect
)
